<svg xmlns="http://www.w3.org/2000/svg" width="55" height="55" viewBox="0 0 55 55">
  <g id="Group_5561" data-name="Group 5561" transform="translate(-38.999 -657.15)">
    <path id="Rectangle_2" data-name="Rectangle 2" d="M893.653,680.445a125.651,125.651,0,0,1,35.994,0,10.679,10.679,0,0,1,8.207,8.207,125.647,125.647,0,0,1,0,35.994,10.679,10.679,0,0,1-8.207,8.207,125.651,125.651,0,0,1-35.994,0,10.679,10.679,0,0,1-8.207-8.207,125.647,125.647,0,0,1,0-35.994,10.679,10.679,0,0,1,8.207-8.207" transform="translate(-845.151 -22)" fill="#2b2741"/>
    <text id="Nomad_List" data-name="Nomad List" transform="translate(54 693)" fill="#ede4ff" font-size="18" font-family="SegoeUI, Segoe UI" letter-spacing="0.07em" opacity="0.4"><tspan x="0" y="0">AS</tspan></text>
  </g>
</svg>
