<svg xmlns="http://www.w3.org/2000/svg" width="69" height="64" viewBox="0 0 69 64">
  <g id="Group_5563" data-name="Group 5563" transform="translate(-20 -142)">
    <path id="Rectangle_2" data-name="Rectangle 2" d="M894.517,680.563a137.073,137.073,0,0,1,39.267,0,11.65,11.65,0,0,1,8.953,8.953,137.074,137.074,0,0,1,0,39.267,11.65,11.65,0,0,1-8.953,8.953,137.073,137.073,0,0,1-39.267,0,11.65,11.65,0,0,1-8.953-8.953,137.069,137.069,0,0,1,0-39.267,11.65,11.65,0,0,1,8.953-8.953" transform="translate(-864.149 -533.15)" fill="#fff"/>
    <path id="Rectangle_3259" data-name="Rectangle 3259" d="M6,0H24a6,6,0,0,1,6,6V6a0,0,0,0,1,0,0H0A0,0,0,0,1,0,6V6A6,6,0,0,1,6,0Z" transform="translate(35 200)" fill="#74c05f"/>
    <text id="Nomad_List" data-name="Nomad List" transform="translate(33.999 185)" fill="#19171d" font-size="20" font-family="SegoeUI, Segoe UI" letter-spacing="0.07em"><tspan x="0" y="0">MT</tspan></text>
    <g id="Ellipse_1213" data-name="Ellipse 1213" transform="translate(67 142)" fill="#ff6868" stroke="#363050" stroke-width="5">
      <circle cx="11" cy="11" r="11" stroke="none"/>
      <circle cx="11" cy="11" r="8.5" fill="none"/>
    </g>
  </g>
</svg>
